{
  "err_no": 0,
  "err_msg": "success",
  "data": [
    {
      "tag_id": "6809640466309447693",
      "tag": {
        "id": 2546569,
        "tag_id": "6809640466309447693",
        "tag_name": "RxJava",
        "color": "#850091",
        "icon": "https://lc-gold-cdn.xitu.io/6fb1878f782cd03388f9.png",
        "back_ground": "",
        "show_navi": 0,
        "tag_alias": "",
        "post_article_count": 1219,
        "concern_user_count": 62606
      },
      "user_interact": {
        "id": 6809640466309447693,
        "omitempty": 9,
        "user_id": 2277843825068702,
        "is_digg": false,
        "is_follow": true,
        "is_collect": false
      }
    },
    {
      "tag_id": "6809640700968173576",
      "tag": {
        "id": 2546738,
        "tag_id": "6809640700968173576",
        "tag_name": "爬虫",
        "color": "#000000",
        "icon": "https://lc-gold-cdn.xitu.io/592d5772f22a67c3e426.png",
        "back_ground": "",
        "show_navi": 0,
        "tag_alias": "",
        "post_article_count": 2321,
        "concern_user_count": 60058
      },
      "user_interact": {
        "id": 6809640700968173576,
        "omitempty": 9,
        "user_id": 2277843825068702,
        "is_digg": false,
        "is_follow": false,
        "is_collect": false
      }
    },
    {
      "tag_id": "6809640556667338765",
      "tag": {
        "id": 2546635,
        "tag_id": "6809640556667338765",
        "tag_name": "腾讯",
        "color": "#00679D",
        "icon": "https://lc-gold-cdn.xitu.io/46019515e04837f3ba1e.png",
        "back_ground": "",
        "show_navi": 0,
        "tag_alias": "",
        "post_article_count": 2766,
        "concern_user_count": 59308
      },
      "user_interact": {
        "id": 6809640556667338765,
        "omitempty": 9,
        "user_id": 2277843825068702,
        "is_digg": false,
        "is_follow": false,
        "is_collect": false
      }
    },
    {
      "tag_id": "6809640508441231367",
      "tag": {
        "id": 2546599,
        "tag_id": "6809640508441231367",
        "tag_name": "云计算",
        "color": "#F56868",
        "icon": "https://lc-gold-cdn.xitu.io/7ccde8f68009b9f5087f.png",
        "back_ground": "",
        "show_navi": 0,
        "tag_alias": "",
        "post_article_count": 3168,
        "concern_user_count": 58453
      },
      "user_interact": {
        "id": 6809640508441231367,
        "omitempty": 9,
        "user_id": 2277843825068702,
        "is_digg": false,
        "is_follow": false,
        "is_collect": false
      }
    },
    {
      "tag_id": "6809640581501812743",
      "tag": {
        "id": 2546652,
        "tag_id": "6809640581501812743",
        "tag_name": "物联网",
        "color": "#000000",
        "icon": "https://user-gold-cdn.xitu.io/15519490868961e15fe0457d55ba0130bfbff6020164b.jpg",
        "back_ground": "",
        "show_navi": 0,
        "tag_alias": "",
        "post_article_count": 1258,
        "concern_user_count": 58428
      },
      "user_interact": {
        "id": 6809640581501812743,
        "omitempty": 9,
        "user_id": 2277843825068702,
        "is_digg": false,
        "is_follow": false,
        "is_collect": false
      }
    },
    {
      "tag_id": "6809640562514198535",
      "tag": {
        "id": 2546639,
        "tag_id": "6809640562514198535",
        "tag_name": "动效",
        "color": "#60ADFF",
        "icon": "https://lc-gold-cdn.xitu.io/b08d8f2616e6e236fd80.png",
        "back_ground": "",
        "show_navi": 0,
        "tag_alias": "",
        "post_article_count": 1070,
        "concern_user_count": 57979
      },
      "user_interact": {
        "id": 6809640562514198535,
        "omitempty": 9,
        "user_id": 2277843825068702,
        "is_digg": false,
        "is_follow": false,
        "is_collect": false
      }
    },
    {
      "tag_id": "6809640497393434632",
      "tag": {
        "id": 2546591,
        "tag_id": "6809640497393434632",
        "tag_name": "Canvas",
        "color": "#F51A00",
        "icon": "https://lc-gold-cdn.xitu.io/d21230e1c079d7706713.png",
        "back_ground": "",
        "show_navi": 0,
        "tag_alias": "",
        "post_article_count": 1672,
        "concern_user_count": 57452
      },
      "user_interact": {
        "id": 6809640497393434632,
        "omitempty": 9,
        "user_id": 2277843825068702,
        "is_digg": false,
        "is_follow": false,
        "is_collect": false
      }
    },
    {
      "tag_id": "6809640410084802573",
      "tag": {
        "id": 2546528,
        "tag_id": "6809640410084802573",
        "tag_name": "Objective-C",
        "color": "#616161",
        "icon": "https://lc-gold-cdn.xitu.io/71d968ea2fde62410b19.png",
        "back_ground": "",
        "show_navi": 0,
        "tag_alias": "",
        "post_article_count": 2184,
        "concern_user_count": 56612
      },
      "user_interact": {
        "id": 6809640410084802573,
        "omitempty": 9,
        "user_id": 2277843825068702,
        "is_digg": false,
        "is_follow": false,
        "is_collect": false
      }
    },
    {
      "tag_id": "6809640677232607239",
      "tag": {
        "id": 2546721,
        "tag_id": "6809640677232607239",
        "tag_name": "HTTPS",
        "color": "#000000",
        "icon": "https://lc-gold-cdn.xitu.io/3abedd0cce3289d14182.png",
        "back_ground": "",
        "show_navi": 0,
        "tag_alias": "",
        "post_article_count": 1618,
        "concern_user_count": 55884
      },
      "user_interact": {
        "id": 6809640677232607239,
        "omitempty": 9,
        "user_id": 2277843825068702,
        "is_digg": false,
        "is_follow": false,
        "is_collect": false
      }
    },
    {
      "tag_id": "6809640412806905870",
      "tag": {
        "id": 2546530,
        "tag_id": "6809640412806905870",
        "tag_name": "字体",
        "color": "#56b485",
        "icon": "https://user-gold-cdn.xitu.io/156111703726286fd354e0cb80b8120ef5bc712158fad.jpg",
        "back_ground": "",
        "show_navi": 0,
        "tag_alias": "",
        "post_article_count": 275,
        "concern_user_count": 55215
      },
      "user_interact": {
        "id": 6809640412806905870,
        "omitempty": 9,
        "user_id": 2277843825068702,
        "is_digg": false,
        "is_follow": false,
        "is_collect": false
      }
    },
    {
      "tag_id": "6813989805282557965",
      "tag": {
        "id": 2546682,
        "tag_id": "6813989805282557965",
        "tag_name": "运营",
        "color": "#000000",
        "icon": "https://lc-gold-cdn.xitu.io/fb2b49e93b61d80f9be7.png",
        "back_ground": "",
        "show_navi": 0,
        "tag_alias": "",
        "post_article_count": 2711,
        "concern_user_count": 53185
      },
      "user_interact": {
        "id": 6813989805282557965,
        "omitempty": 9,
        "user_id": 2277843825068702,
        "is_digg": false,
        "is_follow": false,
        "is_collect": false
      }
    },
    {
      "tag_id": "6809640620030689287",
      "tag": {
        "id": 2546679,
        "tag_id": "6809640620030689287",
        "tag_name": "微服务",
        "color": "#000000",
        "icon": "https://lc-gold-cdn.xitu.io/e5d6c745cae839047dc7.png",
        "back_ground": "",
        "show_navi": 0,
        "tag_alias": "",
        "post_article_count": 2923,
        "concern_user_count": 51759
      },
      "user_interact": {
        "id": 6809640620030689287,
        "omitempty": 9,
        "user_id": 2277843825068702,
        "is_digg": false,
        "is_follow": false,
        "is_collect": false
      }
    },
    {
      "tag_id": "6809640447497994253",
      "tag": {
        "id": 2546555,
        "tag_id": "6809640447497994253",
        "tag_name": "C++",
        "color": "#004383",
        "icon": "https://lc-gold-cdn.xitu.io/664bb393774ec8ebb7cc.png",
        "back_ground": "",
        "show_navi": 0,
        "tag_alias": "",
        "post_article_count": 3173,
        "concern_user_count": 51568
      },
      "user_interact": {
        "id": 6809640447497994253,
        "omitempty": 9,
        "user_id": 2277843825068702,
        "is_digg": false,
        "is_follow": false,
        "is_collect": false
      }
    },
    {
      "tag_id": "6809640534810820616",
      "tag": {
        "id": 2546619,
        "tag_id": "6809640534810820616",
        "tag_name": "Icon",
        "color": "#F56869",
        "icon": "https://lc-gold-cdn.xitu.io/0e59880a343e8c11e3ad.png",
        "back_ground": "",
        "show_navi": 0,
        "tag_alias": "",
        "post_article_count": 1299,
        "concern_user_count": 51004
      },
      "user_interact": {
        "id": 6809640534810820616,
        "omitempty": 9,
        "user_id": 2277843825068702,
        "is_digg": false,
        "is_follow": false,
        "is_collect": false
      }
    },
    {
      "tag_id": "6809640717829275661",
      "tag": {
        "id": 2546751,
        "tag_id": "6809640717829275661",
        "tag_name": "JSON",
        "color": "#000000",
        "icon": "https://lc-gold-cdn.xitu.io/a623804cc0f00e6db9bc.png",
        "back_ground": "",
        "show_navi": 0,
        "tag_alias": "",
        "post_article_count": 794,
        "concern_user_count": 47368
      },
      "user_interact": {
        "id": 6809640717829275661,
        "omitempty": 9,
        "user_id": 2277843825068702,
        "is_digg": false,
        "is_follow": false,
        "is_collect": false
      }
    },
    {
      "tag_id": "6809640604528541710",
      "tag": {
        "id": 2546669,
        "tag_id": "6809640604528541710",
        "tag_name": "虚拟现实",
        "color": "#767676",
        "icon": "https://lc-gold-cdn.xitu.io/44eb18d229326650e1b5.png",
        "back_ground": "",
        "show_navi": 0,
        "tag_alias": "",
        "post_article_count": 263,
        "concern_user_count": 46525
      },
      "user_interact": {
        "id": 6809640604528541710,
        "omitempty": 9,
        "user_id": 2277843825068702,
        "is_digg": false,
        "is_follow": false,
        "is_collect": false
      }
    },
    {
      "tag_id": "6809640685722042381",
      "tag": {
        "id": 2546727,
        "tag_id": "6809640685722042381",
        "tag_name": "Ajax",
        "color": "#000000",
        "icon": "https://lc-gold-cdn.xitu.io/32c277e608abaaf60d04.png",
        "back_ground": "",
        "show_navi": 0,
        "tag_alias": "",
        "post_article_count": 1132,
        "concern_user_count": 45268
      },
      "user_interact": {
        "id": 6809640685722042381,
        "omitempty": 9,
        "user_id": 2277843825068702,
        "is_digg": false,
        "is_follow": false,
        "is_collect": false
      }
    },
    {
      "tag_id": "6809640414102945805",
      "tag": {
        "id": 2546531,
        "tag_id": "6809640414102945805",
        "tag_name": "Debug",
        "color": "#616161",
        "icon": "https://lc-gold-cdn.xitu.io/0aa32577a60f7ec0242f.png",
        "back_ground": "",
        "show_navi": 0,
        "tag_alias": "",
        "post_article_count": 1051,
        "concern_user_count": 44444
      },
      "user_interact": {
        "id": 6809640414102945805,
        "omitempty": 9,
        "user_id": 2277843825068702,
        "is_digg": false,
        "is_follow": false,
        "is_collect": false
      }
    },
    {
      "tag_id": "6809640470319366157",
      "tag": {
        "id": 2546572,
        "tag_id": "6809640470319366157",
        "tag_name": "电子书",
        "color": "#60ADFF",
        "icon": "https://lc-gold-cdn.xitu.io/fbf70d9a397e2be2b6ed.png",
        "back_ground": "",
        "show_navi": 0,
        "tag_alias": "",
        "post_article_count": 491,
        "concern_user_count": 44026
      },
      "user_interact": {
        "id": 6809640470319366157,
        "omitempty": 9,
        "user_id": 2277843825068702,
        "is_digg": false,
        "is_follow": false,
        "is_collect": false
      }
    },
    {
      "tag_id": "6809640418196586503",
      "tag": {
        "id": 2546534,
        "tag_id": "6809640418196586503",
        "tag_name": "NPM",
        "color": "#CD3532",
        "icon": "https://lc-gold-cdn.xitu.io/891485d62baa63dea967.png",
        "back_ground": "",
        "show_navi": 0,
        "tag_alias": "",
        "post_article_count": 1750,
        "concern_user_count": 43523
      },
      "user_interact": {
        "id": 6809640418196586503,
        "omitempty": 9,
        "user_id": 2277843825068702,
        "is_digg": false,
        "is_follow": false,
        "is_collect": false
      }
    }
  ],
  "cursor": "100",
  "count": 632,
  "has_more": true
}